{
  "type": "service_account",
  "project_id": "tipme-42f33",
  "private_key_id": "6b29071dd529b8f40c2632a0cbf12cd90b934a66",
  "private_key": "-----BEGIN PRIVATE KEY-----\nMIIEvgIBADANBgkqhkiG9w0BAQEFAASCBKgwggSkAgEAAoIBAQCpmnCfC0Khyae2\nLlMJckMZNuLuEG1CJQUxxjwzeDzyuLWw0vV2xD3r9u5bq/MZJh6oOwu0R4dtDhnI\nOSGbBqe7w/wVPfCqcnDdtrx/i9NHZOhIRMLAQjOR/rLeUaVPon2XICvI5AV8b4yW\nD9yLU3cYtFBI3NPNf+DLeKlhoahtFTslfdE7aH41eyysqGUK4OtuVd3Brxm3nO3g\nnILCFe7GGy3KTUVPm3Lfzgm8ar/rAJ/ArBosgZmSt29yzdNV1g13lJUGx5AMQ66L\nANv7kMdDE+PNvNiFuGgdshq4PeFYLv/FG9Xp6LndxpckR2ztJTCl2XVf1/F39Aa1\nt/ulhhyjAgMBAAECggEAHmMbVoOP9qjIsa1vFzwvpW7eDcVHrhgv7BEWbCpY0Swi\n8YF6lULnzUU6w5X1QkZAK+gYWr6OFw31tJf322y/1LZyjePBIOjMLA03jKqiuiHs\nNDaNpiC2WKwHpCmAstnsIo2TCrU//mGGEMTawOO9bOGxmLxn/mOxBQOjZWivYoum\nS8+2PACU1cDg1o8qDIoL7lUGYXMUQ2G7IM0py6k75oFSccj0gH9yStNMg4/di71Z\n+tHt3fg41EnkSbi08wF+7fdvO0rUAweQVtjCvAlTivHmeVqQMg01PD7KS5rMyy7h\n6yonWQV3BXORhN+6rzuktoM14GmwtgNDY7Xa2WTZkQKBgQDj4ou3xX6TCW5ONDqk\nTY6Oe8kNdzgz3yQvjuok5A6sM5rKcVy0VI3rPw4DUxq/a25/oFq8OCqgChohyrRb\n8aJiNB9w4nJ0ls+T5oHiRs9uxf01f5P1Ebrhu9Bf6vT3nWB7UnoX9U3YAyIKBQs6\nkTfTmPxh/zWS2Pe6kehihB69VwKBgQC+hyR2FQHtIIBdEMgWYnLWgfF651ID1c/a\nec5kINngr8bgEyR+HKw7UJIq+fuaj3d9TfkvNodmy2Z6+EQNkgUlD8daPSRUUlyH\nKhM9Gcjl+mtJHce0ZAtRw5kd8vqBCVhIUQ4WUMQ30k0w47tbJs9omhlfK3JWQWld\nTHdrGdK/lQKBgQCKCopeGNkykmzqHINFUeG/98XzTTuTWGEgGe9Fx4wHzf6/EOp6\nJhoN3ZVMeEPknlxCHU25ZECVz2jC/XpBk96spCxDgjiY3V4ClogpHIG89VwL0ys6\nMbJF2TJBWB9p+0Adk/l3l9W+uy8caK/Dm4H4wFxptGGsgZeWwZnGS4gfYwKBgHdx\nxdv5Y5HDdHXj1WyjH5d3M2p3pqUc4Af5oPiI187So/1KQvCFDTzKUDh9K81D8Acw\nYO3GY7CAB6lEB3XyeyM29yWNez8Zu0RJjnIZvibfjW7zKoXeynHiDBYIhB9tOllr\n50b6L2lHgHkL7CNC+3h6UzmkxTNqIqIJFDyincrZAoGBAOBideONpoddgQa3nyQG\nbnR90IVT+9yvoojUTRIo6WC1EKKBYDCPZqOr5CQfxY8KibVnVlDaysHyxouQGDhy\n+ZzwqXkVYqU87auAh/9J+kPKs7BZaFubkgW3nNIGvf/M8vuck+ngKVVgBU2hbfdN\nycYNN+Xd8KnvIoM/0xv5eo65\n-----END PRIVATE KEY-----\n",
  "client_email": "firebase-adminsdk-orynp@tipme-42f33.iam.gserviceaccount.com",
  "client_id": "117195464288433654726",
  "auth_uri": "https://accounts.google.com/o/oauth2/auth",
  "token_uri": "https://oauth2.googleapis.com/token",
  "auth_provider_x509_cert_url": "https://www.googleapis.com/oauth2/v1/certs",
  "client_x509_cert_url": "https://www.googleapis.com/robot/v1/metadata/x509/firebase-adminsdk-orynp%40tipme-42f33.iam.gserviceaccount.com"
}
